<?xml version="1.0" encoding="utf-8"?>
<!-- Generator: Adobe Illustrator 15.1.0, SVG Export Plug-In . SVG Version: 6.00 Build 0)  -->
<!DOCTYPE svg PUBLIC "-//W3C//DTD SVG 1.1//EN" "http://www.w3.org/Graphics/SVG/1.1/DTD/svg11.dtd">
<svg version="1.1"
	 id="Actionbar" xmlns:dc="http://purl.org/dc/elements/1.1/" xmlns:cc="http://creativecommons.org/ns#" xmlns:rdf="http://www.w3.org/1999/02/22-rdf-syntax-ns#" xmlns:inkscape="http://www.inkscape.org/namespaces/inkscape" xmlns:svg="http://www.w3.org/2000/svg" xmlns:sodipodi="http://sodipodi.sourceforge.net/DTD/sodipodi-0.dtd" inkscape:version="0.91 r13725" sodipodi:docname="lo-tollbar 9.0 E.svg"
	 xmlns="http://www.w3.org/2000/svg" xmlns:xlink="http://www.w3.org/1999/xlink" x="0px" y="0px" width="35.718px"
	 height="35.719px" viewBox="0 0 35.718 35.719" enable-background="new 0 0 35.718 35.719" xml:space="preserve">
<g id="HELP">
	<g id="g5">
		<path id="path7" fill="#999999" d="M17.858,3.76c-7.773,0-14.099,6.323-14.099,14.099c0,7.772,6.325,14.1,14.099,14.1
			c7.772,0,14.099-6.325,14.099-14.1S25.63,3.76,17.858,3.76z M17.858,30.444c-6.94,0-12.587-5.646-12.587-12.586
			c0-6.939,5.646-12.586,12.587-12.586c6.938,0,12.586,5.646,12.586,12.586C30.444,24.798,24.798,30.444,17.858,30.444z"/>
		<path id="path9" fill="#999999" d="M17.7,28.944c1.277,0,2.383-0.468,3.106-1.381h-6.212C15.318,28.477,16.422,28.944,17.7,28.944
			z"/>
		<path id="path11" fill="#999999" d="M13.699,24.829c0,0.146,0.009,0.289,0.021,0.433h7.958c0.016-0.144,0.022-0.286,0.022-0.433
			v-0.634h-8.005C13.699,24.56,13.699,24.807,13.699,24.829z"/>
		<path id="path13" fill="#999999" d="M15.228,25.864h-1.429c0.086,0.397,0.225,0.658,0.411,1.003l0.059,0.093h6.871
			c0.213-0.368,0.369-0.661,0.463-1.096h-1.432H15.228z"/>
		<path id="path15" fill="#999999" d="M17.699,6.607c-3.926,0-7.47,3.307-7.225,7.227c0.202,3.225,2.083,5.021,2.653,6.563
			c0.397,1.076,0.564,2.206,0.569,2.909v0.286h8.005v-0.286c0.006-0.703,0.172-1.833,0.569-2.909
			c0.569-1.539,2.452-3.338,2.653-6.563C25.169,9.913,21.626,6.607,17.699,6.607z M21.917,18.126
			c-0.369,0.608-0.719,1.186-0.94,1.789c-0.306,0.82-0.485,1.651-0.578,2.354h-5.396c-0.094-0.7-0.273-1.53-0.578-2.354
			c-0.225-0.604-0.572-1.181-0.941-1.789c-0.708-1.172-1.512-2.502-1.629-4.379c-0.086-1.377,0.432-2.733,1.457-3.826
			c1.135-1.209,2.776-1.934,4.389-1.934c1.613,0,3.253,0.725,4.39,1.934c1.025,1.093,1.543,2.449,1.457,3.826
			C23.429,15.624,22.625,16.954,21.917,18.126z"/>
	</g>
	<g id="selected_2_">
		<path id="path29_1_" d="M31.042,17.858c0,7.281-5.903,13.186-13.188,13.186c-7.28,0-13.184-5.902-13.184-13.186
			c0-7.282,5.906-13.184,13.186-13.184C25.139,4.674,31.042,10.577,31.042,17.858"/>
		<path id="path31_1_" fill="#FFFFFF" d="M17.702,28.813L17.702,28.813c1.262,0,2.354-0.462,3.069-1.364h-6.138
			C15.347,28.352,16.439,28.813,17.702,28.813"/>
		<path id="path33_1_" fill="#FFFFFF" d="M13.748,24.746c0,0.146,0.009,0.285,0.021,0.428h7.865
			c0.013-0.143,0.021-0.282,0.021-0.428c0-0.021,0-0.266,0.001-0.626h-7.908V24.746z"/>
		<path id="path35_1_" fill="#FFFFFF" d="M15.258,25.77h-1.412c0.085,0.395,0.223,0.649,0.407,0.991l0.057,0.09h6.79
			c0.21-0.363,0.364-0.652,0.458-1.081h-1.414H15.258z"/>
		<path id="path37_1_" fill="#FFFFFF" d="M17.702,6.74L17.702,6.74c-3.881,0-7.382,3.269-7.14,7.141
			c0.199,3.188,2.059,4.966,2.621,6.483c0.395,1.064,0.559,2.18,0.563,2.874c0.001,0.015,0.001,0.127,0.001,0.285h7.908v-0.285
			c0.005-0.694,0.171-1.81,0.563-2.874c0.563-1.52,2.423-3.298,2.621-6.483C25.083,10.008,21.582,6.74,17.702,6.74 M23.478,13.795
			c-0.115,1.855-0.909,3.169-1.609,4.327c-0.365,0.604-0.709,1.172-0.93,1.77c-0.301,0.813-0.48,1.634-0.57,2.324h-5.333
			c-0.091-0.69-0.27-1.513-0.57-2.324c-0.222-0.598-0.565-1.165-0.93-1.77c-0.701-1.158-1.495-2.472-1.61-4.327
			c-0.085-1.357,0.427-2.7,1.439-3.779c1.123-1.195,2.744-1.908,4.338-1.908c1.591,0,3.212,0.713,4.335,1.908
			C23.052,11.094,23.564,12.437,23.478,13.795"/>
	</g>
</g>
</svg>
