<?xml version="1.0" encoding="utf-8"?>
<!-- Generator: Adobe Illustrator 15.1.0, SVG Export Plug-In . SVG Version: 6.00 Build 0)  -->
<!DOCTYPE svg PUBLIC "-//W3C//DTD SVG 1.1//EN" "http://www.w3.org/Graphics/SVG/1.1/DTD/svg11.dtd">
<svg version="1.1"
	 id="Actionbar" xmlns:dc="http://purl.org/dc/elements/1.1/" xmlns:cc="http://creativecommons.org/ns#" xmlns:rdf="http://www.w3.org/1999/02/22-rdf-syntax-ns#" xmlns:inkscape="http://www.inkscape.org/namespaces/inkscape" xmlns:svg="http://www.w3.org/2000/svg" xmlns:sodipodi="http://sodipodi.sourceforge.net/DTD/sodipodi-0.dtd" inkscape:version="0.91 r13725" sodipodi:docname="lo-tollbar 9.0 E.svg"
	 xmlns="http://www.w3.org/2000/svg" xmlns:xlink="http://www.w3.org/1999/xlink" x="0px" y="0px" width="35.718px"
	 height="35.719px" viewBox="0 0 35.718 35.719" enable-background="new 0 0 35.718 35.719" xml:space="preserve">
<g id="HINT">
	<path id="notification_4_" fill="#B0CA00" d="M2.624,33.095v-0.146c0-4.076,0.001-8.156-0.002-12.233
		c0-0.103,0.027-0.146,0.122-0.188c0.437-0.183,0.876-0.358,1.297-0.573c0.743-0.377,1.353-0.93,1.896-1.552
		c0.746-0.854,1.475-1.724,2.217-2.582c0.407-0.472,0.843-0.913,1.342-1.291c0.755-0.569,1.602-0.939,2.516-1.154
		c0.205-0.047,0.283-0.129,0.331-0.333c0.449-1.925,1.466-3.485,3.032-4.696c0.547-0.422,1.163-0.697,1.799-0.943
		c0.762-0.295,1.518-0.597,2.232-0.997c0.897-0.502,1.721-1.101,2.459-1.813c0.598-0.575,1.159-1.188,1.735-1.781
		c0.058-0.058,0.112-0.119,0.175-0.186c3.109,2.705,6.211,5.399,9.319,8.104c-0.032,0.046-0.056,0.085-0.081,0.123
		c-0.844,1.245-1.689,2.489-2.532,3.736c-0.06,0.086-0.104,0.184-0.136,0.281c-0.395,1.191-0.783,2.387-1.18,3.576
		c-0.022,0.074-0.018,0.127,0.024,0.194c0.358,0.569,0.567,1.188,0.647,1.86c0.047,0.401-0.043,0.785-0.09,1.176
		c-0.074,0.611-0.162,1.224-0.248,1.833c-0.086,0.626-0.174,1.252-0.266,1.879c-0.104,0.71-0.211,1.42-0.322,2.129
		c-0.158,1.035-0.348,2.063-0.797,3.021c-0.332,0.711-0.746,1.363-1.367,1.861c-0.535,0.433-1.144,0.691-1.84,0.691
		c-7.377,0.002-14.757,0.001-22.133,0.001L2.624,33.095L2.624,33.095z M4.974,30.748h0.165c6.524,0,13.049-0.002,19.573,0.005
		c0.287,0,0.506-0.104,0.692-0.305c0.369-0.394,0.589-0.87,0.763-1.369c0.078-0.221,0.136-0.443,0.207-0.685h-3.771v-2.34h4.156
		c0.113-0.784,0.227-1.562,0.341-2.35h-4.495v-2.351h4.833c0.017-0.252,0.074-0.503,0.034-0.739
		c-0.163-0.977-0.971-1.635-1.967-1.632c-2.105,0.01-4.213,0.02-6.318,0.027H19.07c0,0.738,0.012,1.458-0.003,2.177
		c-0.005,0.271-0.037,0.547-0.095,0.812c-0.251,1.137-0.852,2.053-1.782,2.753c-0.696,0.525-1.486,0.853-2.327,1.067
		c-0.679,0.176-1.371,0.236-2.068,0.254c-0.253,0.007-0.507,0.002-0.782,0.002V15.841c-0.031,0-0.039-0.002-0.046,0
		c-0.019,0.006-0.038,0.012-0.056,0.019c-0.559,0.207-1.054,0.521-1.462,0.953c-0.453,0.48-0.882,0.983-1.32,1.479
		c-0.651,0.733-1.28,1.487-1.949,2.206c-0.599,0.645-1.309,1.15-2.087,1.563c-0.092,0.049-0.124,0.099-0.122,0.202
		c0.003,2.774,0.002,5.552,0.002,8.33L4.974,30.748L4.974,30.748z M29.979,11.134c-2.019-1.756-4.032-3.505-6.042-5.252
		c-0.279,0.258-0.543,0.507-0.814,0.746c-0.846,0.745-1.76,1.393-2.752,1.929c-0.748,0.401-1.533,0.722-2.324,1.024
		c-0.517,0.197-1.014,0.42-1.441,0.79c-0.625,0.538-1.146,1.149-1.508,1.895c-0.432,0.894-0.634,1.844-0.697,2.821
		c-0.035,0.542-0.024,1.086-0.025,1.63c-0.002,2.218-0.001,4.436-0.001,6.651v0.151c0.639-0.184,1.232-0.426,1.697-0.903
		c0.426-0.438,0.653-0.966,0.653-1.581c0.001-1.407,0.001-2.814,0.001-4.225V16.67h0.098c2.948-0.016,5.896-0.027,8.845-0.038
		c0.188,0,0.385,0.02,0.568,0.059c0.316,0.064,0.626,0.151,0.949,0.233c0.006-0.015,0.021-0.05,0.034-0.087
		c0.333-1.016,0.663-2.03,0.999-3.045c0.023-0.081,0.064-0.159,0.113-0.229C28.876,12.757,29.423,11.952,29.979,11.134"/>
</g>
</svg>
