{
    "state": "write",
    "metadata": {
        "block": {
            "blockId": 180,
            "displayName": "Demo 1 - Marathon Test",
            "metadata": {
                "blockSloskills": "1, 2,",
                "blockSloknowhow": "3, 4",
                "blockSlo21stcentury": "5, 6"
            },
            "guiName": "block 1 - (Demo 1 - Marathon Test)",
            "name": "block 1"
        },
        "level": {
            "levelId": 26,
            "name": "level 0"
        },
        "task": {
            "taskId": 1973,
            "displayName": "All Templates",
            "name": "Task 3",
            "mesoId": 1973,
            "metadata": null,
            "guiName": "Task 3 - (All Templates)"
        },
        "stream": {
            "streamId": 2,
            "name": "HAVO"
        },
        "subject": {
            "subjectId": 3,
            "name": "engels"
        },
        "adaptiveLevel": "3",
        "adaptiveUse": "key_basic",
        "compulsory": "key_yes",
        "linkType": "key_noLink",
        "liveActv": "none",
        "liveActvType": "",
        "marker": "key_yes",
        "organization": "",
        "objective": "",
        "pen": "key_yes",
        "sticky": "key_yes",
        "tts": "key_yes",
        "helpingHands": "",
        "activity": "",
        "target": "target info",
        "output": "",
        "teacherInfo": "",
        "liveActvContent": "",
        "LOPosition": {
            "position": 25,
            "name": "LO_025"
        },
        "LOColor": "red",
        "LOTemplate": "SR-03-02",
        "linkID": 0,
        "instructions": "instructions"
    },
    "content": {
        "key_triggerText": {
            "value": "<h3>Trigger text</h3>\n\n<h3>The standard Lorem Ipsum passage, used since the 1500s</h3>\n\n<p>\"Lorem ipsum dolor sit amet, consectetur adipiscing elit, sed do eiusmod tempor incididunt ut labore et dolore magna aliqua. Ut enim ad minim veniam, quis nostrud exercitation ullamco laboris nisi ut aliquip ex ea commodo consequat. Duis aute irure dolor in reprehenderit in voluptate velit esse cillum dolore eu fugiat nulla pariatur. Excepteur sint occaecat cupidatat non proident, sunt in culpa qui officia deserunt mollit anim id est laborum.\"</p>\n"
        },
        "key_contentText_1": {
            "value": "<h3>Top left text</h3>\n\n<h3>The standard Lorem Ipsum passage, used since the 1500s</h3>\n\n<p>\"Lorem ipsum dolor sit amet, consectetur adipiscing elit, sed do eiusmod tempor incididunt ut labore et dolore magna aliqua. Ut enim ad minim veniam, quis nostrud exercitation ullamco laboris nisi ut aliquip ex ea commodo consequat. Duis aute irure dolor in reprehenderit in voluptate velit esse cillum dolore eu fugiat nulla pariatur. Excepteur sint occaecat cupidatat non proident, sunt in culpa qui officia deserunt mollit anim id est laborum.\"</p>\n"
        },
        "key_contentText_3": {
            "value": "<h3>Right text</h3>\n\n<h3>The standard Lorem Ipsum passage, used since the 1500s</h3>\n\n<p>\"Lorem ipsum dolor sit amet, consectetur adipiscing elit, sed do eiusmod tempor incididunt ut labore et dolore magna aliqua. Ut enim ad minim veniam, quis nostrud exercitation ullamco laboris nisi ut aliquip ex ea commodo consequat. Duis aute irure dolor in reprehenderit in voluptate velit esse cillum dolore eu fugiat nulla pariatur. Excepteur sint occaecat cupidatat non proident, sunt in culpa qui officia deserunt mollit anim id est laborum.\"</p>\n"
        }
    },
    "richMedia": [
        {
            "type": "video",
            "item": "Trigger",
            "description_link": "<p>stimulus video</p>\n",
            "copyright": "",
            "timecode": "",
            "subtitles": "",
            "visual_effects": "",
            "new_voiceover_script": "",
            "voices": "",
            "audio_effects": ""
        }
    ],
    "comments": [],
    "time": "",
    "title": "SR-03-02 with video",
    "learningObjectId": 274,
    "sortOrder": 25
}